<?xml version="1.0" encoding="UTF-8" standalone="no" ?>
<gpx xmlns="http://www.topografix.com/GPX/1/1" xmlns:xsi="http://www.w3.org/2001/XMLSchema-instance" xsi:schemaLocation="http://www.topografix.com/GPX/1/1 http://www.topografix.com/GPX/1/1/gpx.xsd" version="1.1" creator="EditGPX">
  <metadata>
    <name>trace</name>
  </metadata>
  <trk>
    <trkseg>
      <trkpt lat="45.759669" lon="4.820196">
        <ele>260.8</ele>
      </trkpt>
      <trkpt lat="45.759669" lon="4.820196">
        <ele>260.8</ele>
      </trkpt>
      <trkpt lat="45.759214" lon="4.820018">
        <ele>260.9</ele>
      </trkpt>
      <trkpt lat="45.759173" lon="4.820254">
        <ele>260.1</ele>
      </trkpt>
      <trkpt lat="45.759122" lon="4.821340">
        <ele>255.5</ele>
      </trkpt>
      <trkpt lat="45.757978" lon="4.821029">
        <ele>247</ele>
      </trkpt>
      <trkpt lat="45.757879" lon="4.821009">
        <ele>246.7</ele>
      </trkpt>
      <trkpt lat="45.757871" lon="4.821204">
        <ele>245.9</ele>
      </trkpt>
      <trkpt lat="45.757695" lon="4.821260">
        <ele>244.8</ele>
      </trkpt>
      <trkpt lat="45.757550" lon="4.821575">
        <ele>239.7</ele>
      </trkpt>
      <trkpt lat="45.757532" lon="4.821619">
        <ele>238.5</ele>
      </trkpt>
      <trkpt lat="45.757355" lon="4.821511">
        <ele>239.7</ele>
      </trkpt>
      <trkpt lat="45.757345" lon="4.821547">
        <ele>239.1</ele>
      </trkpt>
      <trkpt lat="45.757406" lon="4.821621">
        <ele>238.2</ele>
      </trkpt>
      <trkpt lat="45.757646" lon="4.821947">
        <ele>233.1</ele>
      </trkpt>
      <trkpt lat="45.757735" lon="4.822179">
        <ele>231.5</ele>
      </trkpt>
      <trkpt lat="45.757773" lon="4.822450">
        <ele>227.7</ele>
      </trkpt>
      <trkpt lat="45.757715" lon="4.823174">
        <ele>219</ele>
      </trkpt>
      <trkpt lat="45.757756" lon="4.823449">
        <ele>215.4</ele>
      </trkpt>
      <trkpt lat="45.757806" lon="4.823580">
        <ele>213.8</ele>
      </trkpt>
      <trkpt lat="45.758225" lon="4.823768">
        <ele>216.5</ele>
      </trkpt>
      <trkpt lat="45.758327" lon="4.823893">
        <ele>215.7</ele>
      </trkpt>
      <trkpt lat="45.758501" lon="4.824429">
        <ele>201.1</ele>
      </trkpt>
      <trkpt lat="45.758770" lon="4.824672">
        <ele>196.6</ele>
      </trkpt>
      <trkpt lat="45.759053" lon="4.824937">
        <ele>189.3</ele>
      </trkpt>
      <trkpt lat="45.759444" lon="4.825442">
        <ele>174.2</ele>
      </trkpt>
      <trkpt lat="45.759659" lon="4.825576">
        <ele>172.1</ele>
      </trkpt>
      <trkpt lat="45.759686" lon="4.825613">
        <ele>171.7</ele>
      </trkpt>
      <trkpt lat="45.759751" lon="4.825919">
        <ele>170</ele>
      </trkpt>
      <trkpt lat="45.759789" lon="4.826249">
        <ele>169.4</ele>
      </trkpt>
      <trkpt lat="45.759794" lon="4.826372">
        <ele>169</ele>
      </trkpt>
      <trkpt lat="45.760116" lon="4.826457">
        <ele>168.4</ele>
      </trkpt>
      <trkpt lat="45.760247" lon="4.826476">
        <ele>168.1</ele>
      </trkpt>
      <trkpt lat="45.760353" lon="4.826484">
        <ele>168.2</ele>
      </trkpt>
      <trkpt lat="45.760602" lon="4.826571">
        <ele>168.3</ele>
      </trkpt>
      <trkpt lat="45.760853" lon="4.826717">
        <ele>168.2</ele>
      </trkpt>
      <trkpt lat="45.761130" lon="4.827024">
        <ele>168.7</ele>
      </trkpt>
      <trkpt lat="45.761503" lon="4.827201">
        <ele>168.5</ele>
      </trkpt>
      <trkpt lat="45.762500" lon="4.827609">
        <ele>168.6</ele>
      </trkpt>
      <trkpt lat="45.762764" lon="4.827802">
        <ele>168</ele>
      </trkpt>
      <trkpt lat="45.762650" lon="4.828333">
        <ele>167.5</ele>
      </trkpt>
      <trkpt lat="45.762298" lon="4.828196">
        <ele>167.1</ele>
      </trkpt>
      <trkpt lat="45.762191" lon="4.828641">
        <ele>166.9</ele>
      </trkpt>
      <trkpt lat="45.761847" lon="4.828531">
        <ele>167.3</ele>
      </trkpt>
      <trkpt lat="45.761774" lon="4.828523">
        <ele>167.3</ele>
      </trkpt>
      <trkpt lat="45.761650" lon="4.829223">
        <ele>166.9</ele>
      </trkpt>
      <trkpt lat="45.761373" lon="4.830790">
        <ele>160</ele>
      </trkpt>
      <trkpt lat="45.761297" lon="4.830940">
        <ele>162.1</ele>
      </trkpt>
      <trkpt lat="45.761229" lon="4.831082">
        <ele>165.2</ele>
      </trkpt>
      <trkpt lat="45.760752" lon="4.830857">
        <ele>164.1</ele>
      </trkpt>
      <trkpt lat="45.760541" lon="4.830693">
        <ele>164.1</ele>
      </trkpt>
      <trkpt lat="45.760414" lon="4.830962">
        <ele>166</ele>
      </trkpt>
      <trkpt lat="45.760049" lon="4.830607">
        <ele>166</ele>
      </trkpt>
      <trkpt lat="45.759714" lon="4.831442">
        <ele>167</ele>
      </trkpt>
      <trkpt lat="45.759884" lon="4.831578">
        <ele>167</ele>
      </trkpt>
      <trkpt lat="45.759682" lon="4.832107">
        <ele>167</ele>
      </trkpt>
      <trkpt lat="45.759740" lon="4.832155">
        <ele>167</ele>
      </trkpt>
      <trkpt lat="45.759699" lon="4.832249">
        <ele>167.1</ele>
      </trkpt>
      <trkpt lat="45.760036" lon="4.832504">
        <ele>167</ele>
      </trkpt>
      <trkpt lat="45.760212" lon="4.832952">
        <ele>167</ele>
      </trkpt>
      <trkpt lat="45.760476" lon="4.833087">
        <ele>166.4</ele>
      </trkpt>
      <trkpt lat="45.760442" lon="4.833271">
        <ele>166.9</ele>
      </trkpt>
      <trkpt lat="45.760390" lon="4.833524">
        <ele>167</ele>
      </trkpt>
      <trkpt lat="45.760407" lon="4.833748">
        <ele>167</ele>
      </trkpt>
      <trkpt lat="45.760684" lon="4.833791">
        <ele>167</ele>
      </trkpt>
      <trkpt lat="45.760733" lon="4.833540">
        <ele>166.8</ele>
      </trkpt>
      <trkpt lat="45.760710" lon="4.833457">
        <ele>166.7</ele>
      </trkpt>
      <trkpt lat="45.760770" lon="4.833426">
        <ele>166.5</ele>
      </trkpt>
      <trkpt lat="45.760910" lon="4.833456">
        <ele>166.6</ele>
      </trkpt>
      <trkpt lat="45.761117" lon="4.833475">
        <ele>167</ele>
      </trkpt>
      <trkpt lat="45.761137" lon="4.833480">
        <ele>167</ele>
      </trkpt>
      <trkpt lat="45.761142" lon="4.834004">
        <ele>167.1</ele>
      </trkpt>
      <trkpt lat="45.761140" lon="4.834176">
        <ele>167.1</ele>
      </trkpt>
      <trkpt lat="45.761165" lon="4.835415">
        <ele>167</ele>
      </trkpt>
      <trkpt lat="45.761176" lon="4.835524">
        <ele>167</ele>
      </trkpt>
      <trkpt lat="45.760730" lon="4.835486">
        <ele>167.8</ele>
      </trkpt>
      <trkpt lat="45.760278" lon="4.835461">
        <ele>167.7</ele>
      </trkpt>
      <trkpt lat="45.760273" lon="4.835611">
        <ele>168</ele>
      </trkpt>
      <trkpt lat="45.760068" lon="4.835513">
        <ele>167.2</ele>
      </trkpt>
      <trkpt lat="45.759754" lon="4.835328">
        <ele>167.7</ele>
      </trkpt>
      <trkpt lat="45.759006" lon="4.834876">
        <ele>167</ele>
      </trkpt>
      <trkpt lat="45.758647" lon="4.834667">
        <ele>167</ele>
      </trkpt>
      <trkpt lat="45.758157" lon="4.834361">
        <ele>167</ele>
      </trkpt>
      <trkpt lat="45.757870" lon="4.833990">
        <ele>166.4</ele>
      </trkpt>
      <trkpt lat="45.757761" lon="4.833688">
        <ele>166</ele>
      </trkpt>
      <trkpt lat="45.757585" lon="4.833062">
        <ele>166.3</ele>
      </trkpt>
      <trkpt lat="45.757652" lon="4.832337">
        <ele>167.5</ele>
      </trkpt>
      <trkpt lat="45.757777" lon="4.832167">
        <ele>168</ele>
      </trkpt>
      <trkpt lat="45.757421" lon="4.831914">
        <ele>166.7</ele>
      </trkpt>
      <trkpt lat="45.757068" lon="4.831700">
        <ele>166.4</ele>
      </trkpt>
      <trkpt lat="45.756850" lon="4.831553">
        <ele>166</ele>
      </trkpt>
      <trkpt lat="45.756648" lon="4.831427">
        <ele>166</ele>
      </trkpt>
      <trkpt lat="45.756092" lon="4.831105">
        <ele>167</ele>
      </trkpt>
      <trkpt lat="45.754653" lon="4.830189">
        <ele>168</ele>
      </trkpt>
      <trkpt lat="45.753771" lon="4.829616">
        <ele>168</ele>
      </trkpt>
      <trkpt lat="45.753052" lon="4.829194">
        <ele>168</ele>
      </trkpt>
      <trkpt lat="45.752296" lon="4.828733">
        <ele>168</ele>
      </trkpt>
      <trkpt lat="45.751641" lon="4.828293">
        <ele>168.1</ele>
      </trkpt>
      <trkpt lat="45.751485" lon="4.828231">
        <ele>168.7</ele>
      </trkpt>
    </trkseg>
  </trk>
</gpx>